<svg xmlns="http://www.w3.org/2000/svg" width="102.513" height="74.949" viewBox="0 0 102.513 74.949">
  <g id="add" transform="translate(-7 -74)" opacity="0.68">
    <path id="Path_498" data-name="Path 498" d="M180.954,161.505a8.883,8.883,0,1,0-8.883-8.883A8.883,8.883,0,0,0,180.954,161.505Zm0-14.474a5.592,5.592,0,1,1-5.592,5.592A5.592,5.592,0,0,1,180.954,147.031Z" transform="translate(-131.117 -55.395)" fill="#c80058"/>
    <path id="Path_499" data-name="Path 499" d="M380.13,303.845h-7.2v-7.2a1.646,1.646,0,1,0-3.291,0v7.2h-6.994a1.646,1.646,0,1,0,0,3.291h6.994v6.994a1.646,1.646,0,1,0,3.291,0v-6.994h7.2a1.646,1.646,0,1,0,0-3.291Z" transform="translate(-281.184 -175.542)" fill="#c80058"/>
    <path id="Path_500" data-name="Path 500" d="M102.648,114.96V83.816A9.882,9.882,0,0,0,92.721,74h-75.9A9.793,9.793,0,0,0,7,83.816V133.41a9.871,9.871,0,0,0,9.823,9.909H76.656a19.253,19.253,0,0,0,32.857-13.612A19.512,19.512,0,0,0,102.648,114.96ZM16.822,77.291h75.9a6.587,6.587,0,0,1,6.636,6.525v28.916a19.146,19.146,0,0,0-9.075-2.266,19.562,19.562,0,0,0-2.152.119l-13.786-9.761a1.65,1.65,0,0,0-2.108.169L53.657,119.253,32.064,108.729a1.6,1.6,0,0,0-1.522.056l-20.251,11.76V83.816a6.5,6.5,0,0,1,6.531-6.525Zm-6.531,56.12v-9.06l21.144-12.278,19.743,9.646-18.624,18.31H16.822a6.577,6.577,0,0,1-6.531-6.617Zm26.958,6.617,36.309-35.7,10.262,7.261a19.247,19.247,0,0,0-9.8,28.444Zm53.006,5.611A15.941,15.941,0,1,1,106.2,129.7,15.941,15.941,0,0,1,90.255,145.638Z" transform="translate(0 0)" fill="#c80058"/>
  </g>
</svg>
