<svg xmlns="http://www.w3.org/2000/svg" xmlns:xlink="http://www.w3.org/1999/xlink" width="60" height="60" viewBox="0 0 60 60">
  <defs>
    <linearGradient id="linear-gradient" y1="1" x2="1.096" gradientUnits="objectBoundingBox">
      <stop offset="0" stop-color="#c80058"/>
      <stop offset="1" stop-color="#530050"/>
    </linearGradient>
  </defs>
  <path id="user" d="M60,30A30,30,0,1,0,5.038,46.618l0,.021.207.3c.18.263.374.512.562.768.076.1.151.209.229.313.238.316.483.626.732.931.072.088.145.175.218.262a30.011,30.011,0,0,0,3.793,3.794c.083.069.165.139.249.208.3.243.6.481.906.712.124.094.25.185.375.277.292.214.584.426.884.629.16.109.326.211.488.317.416.27.836.531,1.264.779.3.174.6.347.9.511.184.1.372.191.558.286q.486.249.982.481.25.115.5.227.574.255,1.162.485c.121.048.241.1.363.144a29.711,29.711,0,0,0,3.3,1.036c.046.012.093.021.139.032q.747.183,1.509.328c.135.026.27.049.405.073q.636.113,1.28.2c.164.022.327.043.491.063.419.048.841.086,1.265.117.158.012.315.027.473.036.571.03,1.145.051,1.724.051s1.153-.021,1.724-.053c.158-.009.315-.025.473-.036.424-.031.846-.068,1.265-.117.164-.019.328-.041.491-.063q.645-.085,1.28-.2c.135-.024.27-.047.4-.073q.762-.146,1.509-.328l.139-.032a29.712,29.712,0,0,0,3.3-1.036c.122-.046.243-.1.365-.144q.586-.231,1.161-.484c.168-.074.336-.15.5-.227q.5-.231.982-.481c.187-.1.374-.188.558-.286.305-.164.6-.337.9-.511q.642-.374,1.264-.779c.163-.106.328-.208.488-.317.3-.2.592-.415.884-.629.125-.092.251-.183.375-.277q.459-.346.906-.712c.084-.069.166-.139.249-.208a30.092,30.092,0,0,0,3.794-3.795c.073-.087.145-.173.216-.261.249-.305.494-.615.732-.931.078-.1.152-.208.229-.313.188-.256.382-.505.562-.768l.207-.3,0-.021A29.818,29.818,0,0,0,60,30Zm-2,0a27.822,27.822,0,0,1-3.591,13.694A13.628,13.628,0,0,0,42,34.032V34H35.365A.366.366,0,0,1,35,33.635V32.99a.4.4,0,0,1,.276-.352c6.439-2.421,10.455-12.464,9.613-19.488a14.93,14.93,0,0,0-4.883-9.3A28.042,28.042,0,0,1,58,30ZM52.538,46.59c-.081.109-.162.217-.244.325-.223.293-.448.584-.682.868l-.073.086a28.312,28.312,0,0,1-2.611,2.743c-.055.051-.11.1-.166.153-.277.251-.561.495-.848.735-.09.075-.181.149-.272.223-.279.227-.56.45-.847.666-.1.073-.2.142-.295.214-.165.121-.332.238-.5.355V42H42V36.031A11.638,11.638,0,0,1,52.891,46.095C52.774,46.261,52.659,46.427,52.538,46.59Zm-9.424,8.139c-.177.094-.357.185-.537.276q-.453.228-.913.44c-.15.069-.3.138-.45.2q-.577.252-1.166.479c-.081.031-.16.065-.241.1a27.908,27.908,0,0,1-3.063.95c-.075.019-.151.034-.226.052-.431.1-.865.2-1.3.279-.13.025-.26.047-.391.07q-.582.1-1.17.178c-.151.02-.3.041-.454.058-.388.045-.779.078-1.17.107-.145.01-.289.025-.435.033-.531.032-1.062.05-1.6.05s-1.065-.018-1.595-.048c-.146-.008-.29-.023-.435-.033-.391-.029-.782-.062-1.17-.107-.152-.017-.3-.038-.454-.058q-.588-.078-1.17-.178c-.13-.023-.261-.045-.391-.07q-.656-.125-1.3-.28l-.225-.052a28.143,28.143,0,0,1-3.064-.95c-.081-.03-.161-.064-.241-.1q-.588-.227-1.165-.479c-.151-.066-.3-.135-.451-.2q-.46-.211-.913-.44c-.18-.091-.36-.181-.537-.276-.259-.137-.514-.283-.769-.428L16,54.234V44H44V54.233l-.118.068C43.628,54.447,43.373,54.592,43.114,54.729Zm-29.908-2.34c-.287-.216-.568-.439-.846-.665-.092-.074-.183-.149-.274-.224-.287-.239-.57-.483-.846-.734-.057-.051-.112-.1-.168-.155a28.171,28.171,0,0,1-2.61-2.742l-.073-.086c-.234-.284-.459-.575-.682-.868-.082-.108-.164-.216-.244-.325-.12-.163-.235-.329-.352-.495A11.634,11.634,0,0,1,18,36.031V42H14V52.958c-.167-.117-.335-.235-.5-.355C13.4,52.531,13.3,52.462,13.206,52.389Zm12.285-21.6C20.709,29.022,17,20.85,17,15c0-.128.015-.253.019-.38l.732-.9a5.916,5.916,0,0,1,7.012-1.4,8,8,0,0,0,10.265-3.5,16.723,16.723,0,0,1,7.943,5.5c.293,6.1-3.294,14.533-8.4,16.452A2.375,2.375,0,0,0,33,32.99v.645A2.369,2.369,0,0,0,35.365,36H36v6H24V36h.635A2.369,2.369,0,0,0,27,33.635V33A2.351,2.351,0,0,0,25.491,30.791ZM30.04,2h.033a13.263,13.263,0,0,1,1.43.083,13.051,13.051,0,0,1,10.752,8.589,19.305,19.305,0,0,0-7.5-4.027l-.86-.236-.333.826a6,6,0,0,1-7.992,3.252,8.029,8.029,0,0,0-8.017.729A13.014,13.014,0,0,1,30.04,2ZM40,42H38V36h2ZM22,42H20V36h2ZM19.982,3.86c-.193.174-.392.338-.578.523A14.9,14.9,0,0,0,15,15c0,6.629,4.19,15.593,9.8,17.666A.352.352,0,0,1,25,33v.635a.366.366,0,0,1-.365.365H18v.032A13.628,13.628,0,0,0,5.591,43.694,27.967,27.967,0,0,1,19.982,3.86Z" opacity="0.94" fill="url(#linear-gradient)"/>
</svg>
